name;organisation_name;latitude;longitude;address;zip_code;city;country;outliers_combustion;outliers_electricity
Castellana;Segara Environmental Consulting, SL;40.46182599250724;-3.6890394398838344;Paseo de la Castellana, 194;28046;Madrid;España;[90,200];[0,0]
Polígono;Segara Environmental Consulting, SL;39.863891132994645;-3.945642909774877;Calle Río Fresnedoso, 67;45007;Toledo;España;[940,1600];[100,200]
