name;year;emission_factor
Gasolina;2011;2.205
Gasóleo A;2011;2.493
Gasóleo B;2011;2.708
Gasóleo C;2011;2.868
E5;2011;2.18
E10;2011;2.065
E85;2011;0.344
E100;2011;0
B7;2011;2.467
B10;2011;2.387
B20;2011;2.122
B30;2011;1.857
B100;2011;0
XTL;2011;0
Gas natural;2011;0.182
LNG;2011;2.743
CNG;2011;2.743
LPG;2011;1.671
H2;2011;0
Gas butano;2011;2.964
Gas propano;2011;2.938
Fuelóleo;2011;3.127
Carbón nacional;2011;2.299
Carbón de importación;2011;2.579
Coque de petróleo;2011;3.169
Gasolina;2012;2.201
Gasóleo A;2012;2.467
Gasóleo B;2012;2.708
Gasóleo C;2012;2.868
E5;2012;2.18
E10;2012;2.065
E85;2012;0.344
E100;2012;0
B7;2012;2.467
B10;2012;2.387
B20;2012;2.122
B30;2012;1.857
B100;2012;0
XTL;2012;0
Gas natural;2012;0.182
LNG;2012;2.723
CNG;2012;2.723
LPG;2012;1.671
H2;2012;0
Gas butano;2012;2.964
Gas propano;2012;2.938
Fuelóleo;2012;3.127
Carbón nacional;2012;2.299
Carbón de importación;2012;2.579
Coque de petróleo;2012;3.169
Gasolina;2013;2.205
Gasóleo A;2013;2.544
Gasóleo B;2013;2.708
Gasóleo C;2013;2.868
E5;2013;2.18
E10;2013;2.065
E85;2013;0.344
E100;2013;0
B7;2013;2.467
B10;2013;2.387
B20;2013;2.122
B30;2013;1.857
B100;2013;0
XTL;2013;0
Gas natural;2013;0.182
LNG;2013;2.713
CNG;2013;2.713
LPG;2013;1.671
H2;2013;0
Gas butano;2013;2.964
Gas propano;2013;2.938
Fuelóleo;2013;3.127
Carbón nacional;2013;2.299
Carbón de importación;2013;2.579
Coque de petróleo;2013;3.169
Gasolina;2014;2.205
Gasóleo A;2014;2.544
Gasóleo B;2014;2.708
Gasóleo C;2014;2.868
E5;2014;2.18
E10;2014;2.065
E85;2014;0.344
E100;2014;0
B7;2014;2.467
B10;2014;2.387
B20;2014;2.122
B30;2014;1.857
B100;2014;0
XTL;2014;0
Gas natural;2014;0.182
LNG;2014;2.713
CNG;2014;2.713
LPG;2014;1.671
H2;2014;0
Gas butano;2014;2.964
Gas propano;2014;2.938
Fuelóleo;2014;3.127
Carbón nacional;2014;2.299
Carbón de importación;2014;2.579
Coque de petróleo;2014;3.169
Gasolina;2015;2.205
Gasóleo A;2015;2.544
Gasóleo B;2015;2.708
Gasóleo C;2015;2.868
E5;2015;2.18
E10;2015;2.065
E85;2015;0.344
E100;2015;0
B7;2015;2.467
B10;2015;2.387
B20;2015;2.122
B30;2015;1.857
B100;2015;0
XTL;2015;0
Gas natural;2015;0.182
LNG;2015;2.697
CNG;2015;2.697
LPG;2015;1.671
H2;2015;0
Gas butano;2015;2.964
Gas propano;2015;2.938
Fuelóleo;2015;3.127
Carbón nacional;2015;2.299
Carbón de importación;2015;2.579
Coque de petróleo;2015;3.169
Gasolina;2016;2.196
Gasóleo A;2016;2.539
Gasóleo B;2016;2.708
Gasóleo C;2016;2.868
E5;2016;2.18
E10;2016;2.065
E85;2016;0.344
E100;2016;0
B7;2016;2.467
B10;2016;2.387
B20;2016;2.122
B30;2016;1.857
B100;2016;0
XTL;2016;0
Gas natural;2016;0.182
LNG;2016;2.705
CNG;2016;2.705
LPG;2016;1.671
H2;2016;0
Gas butano;2016;2.964
Gas propano;2016;2.938
Fuelóleo;2016;3.127
Carbón nacional;2016;2.006
Carbón de importación;2016;2.43
Coque de petróleo;2016;3.169
Gasolina;2017;2.18
Gasóleo A;2017;2.52
Gasóleo B;2017;2.708
Gasóleo C;2017;2.868
E5;2017;2.18
E10;2017;2.065
E85;2017;0.344
E100;2017;0
B7;2017;2.467
B10;2017;2.387
B20;2017;2.122
B30;2017;1.857
B100;2017;0
XTL;2017;0
Gas natural;2017;0.183
LNG;2017;2.704
CNG;2017;2.704
LPG;2017;1.671
H2;2017;0
Gas butano;2017;2.964
Gas propano;2017;2.938
Fuelóleo;2017;3.127
Carbón nacional;2017;2.227
Carbón de importación;2017;2.444
Coque de petróleo;2017;3.169
Gasolina;2018;2.157
Gasóleo A;2018;2.493
Gasóleo B;2018;2.708
Gasóleo C;2018;2.868
E5;2018;2.18
E10;2018;2.065
E85;2018;0.344
E100;2018;0
B7;2018;2.467
B10;2018;2.387
B20;2018;2.122
B30;2018;1.857
B100;2018;0
XTL;2018;0
Gas natural;2018;0.183
LNG;2018;2.71
CNG;2018;2.71
LPG;2018;1.671
H2;2018;0
Gas butano;2018;2.964
Gas propano;2018;2.938
Fuelóleo;2018;3.127
Carbón nacional;2018;2.227
Carbón de importación;2018;2.444
Coque de petróleo;2018;3.169
Gasóleo B;2019;2.708
Gasóleo C;2019;2.868
E5;2019;2.18
E10;2019;2.065
E85;2019;0.344
E100;2019;0
B7;2019;2.467
B10;2019;2.387
B20;2019;2.122
B30;2019;1.857
B100;2019;0
XTL;2019;0
Gas natural;2019;0.182
LNG;2019;2.697
CNG;2019;2.697
LPG;2019;1.671
H2;2019;0
Gas butano;2019;2.964
Gas propano;2019;2.938
Fuelóleo;2019;3.127
Carbón nacional;2019;1.914
Carbón de importación;2019;2.429
Coque de petróleo;2019;3.169
Gasóleo B;2020;2.686
Gasóleo C;2020;2.868
E5;2020;2.244
E10;2020;2.125
E85;2020;0.354
E100;2020;0
B7;2020;2.456
B10;2020;2.377
B20;2020;2.113
B30;2020;1.849
B100;2020;0
XTL;2020;0
Gas natural;2020;0.182
LNG;2020;2.721
CNG;2020;2.721
LPG;2020;1.628
H2;2020;0
Gas butano;2020;2.964
Gas propano;2020;2.938
Fuelóleo;2020;3.127
Carbón nacional;2020;2.718
Carbón de importación;2020;2.469
Coque de petróleo;2020;3.169
Gasóleo B;2021;2.686
Gasóleo C;2021;2.868
E5;2021;2.244
E10;2021;2.125
E85;2021;0.354
E100;2021;0
B7;2021;2.456
B10;2021;2.377
B20;2021;2.113
B30;2021;1.849
B100;2021;0
XTL;2021;0
Gas natural;2021;0.182
LNG;2021;2.721
CNG;2021;2.721
LPG;2021;1.628
H2;2021;0
Gas butano;2021;2.964
Gas propano;2021;2.938
Fuelóleo;2021;3.127
Carbón nacional;2021;2.718
Carbón de importación;2021;2.469
Coque de petróleo;2021;3.169
